<svg width="24" height="24" version="1.1" viewBox="0 0 6.35 6.35" xmlns="http://www.w3.org/2000/svg" xmlns:osb="http://www.openswatchbook.org/uri/2009/osb" xmlns:xlink="http://www.w3.org/1999/xlink">
 <defs>
  <linearGradient id="a" x2="64" y1="32" y2="32" gradientUnits="userSpaceOnUse">
   <stop stop-color="#12bbad" offset="0"/>
  </linearGradient>
 </defs>
 <g id="KM_Info_Green" transform="matrix(.091015 0 0 .091015 .26542 .27507)">
  <path d="m64 32c0 17.672-14.328 32-32 32s-32-14.328-32-32 14.328-32 32-32 32 14.328 32 32z" fill="url(#a)" fill-rule="evenodd" stroke-width="2.907"/>
  <g transform="matrix(1.2813 0 0 1.2813 -9.001 -8.9971)" fill="#fff" fill-opacity=".902" stroke-width="2.2689">
   <path d="m36 48.194h-8v-20.959h8v20.959"/>
   <path d="m36 20c0 2.2109-1.7891 4-4 4s-4-1.7891-4-4 1.7891-4 4-4 4 1.7891 4 4z" fill-rule="evenodd"/>
  </g>
 </g>
</svg>
