<svg width="24" height="24" version="1.1" viewBox="0 0 6.35 6.35" xmlns="http://www.w3.org/2000/svg" xmlns:osb="http://www.openswatchbook.org/uri/2009/osb" xmlns:xlink="http://www.w3.org/1999/xlink">
 <defs>
  <linearGradient id="a" osb:paint="solid">
   <stop stop-color="#0e7d74" offset="0"/>
  </linearGradient>
  <linearGradient id="b" osb:paint="solid">
   <stop stop-color="#d9eef7" offset="0"/>
  </linearGradient>
  <linearGradient id="h" x1=".89769" x2="2.4568" y1="293.86" y2="293.86" gradientTransform="matrix(1.1429 0 0 1.1725 -.21452 -52.567)" gradientUnits="userSpaceOnUse" xlink:href="#b"/>
  <linearGradient id="e" x1=".73679" x2="3.1454" y1="293.46" y2="293.46" gradientTransform="matrix(1.2059 0 0 1.207 -.64675 -61.196)" gradientUnits="userSpaceOnUse" xlink:href="#a"/>
  <linearGradient id="f" x1=".89769" x2="2.4568" y1="293.86" y2="293.86" gradientTransform="matrix(1.1429 0 0 1.1725 2.7608 -52.511)" gradientUnits="userSpaceOnUse" xlink:href="#b"/>
  <linearGradient id="d" x1="3.204" x2="5.6126" y1="293.5" y2="293.5" gradientTransform="matrix(1.2059 0 0 1.207 -.64675 -61.196)" gradientUnits="userSpaceOnUse" xlink:href="#a"/>
  <linearGradient id="g" x1=".89769" x2="2.4568" y1="293.86" y2="293.86" gradientTransform="matrix(1.4784 0 0 1.5135 .71097 -151.92)" gradientUnits="userSpaceOnUse">
   <stop stop-color="#12bbad" offset="0"/>
  </linearGradient>
  <linearGradient id="c" x1="1.629" x2="4.7478" y1="294.59" y2="294.59" gradientTransform="matrix(1.1717 0 0 1.1703 -.55607 -50.598)" gradientUnits="userSpaceOnUse" xlink:href="#a"/>
 </defs>
 <g id="KM_Managers" transform="translate(.0023264 -290.69)" fill-rule="evenodd" stroke-linecap="round" stroke-linejoin="bevel" stroke-width=".265">
  <path d="m1.7028 291.07a0.89102 0.91405 0 0 0-0.89127 0.9137 0.89102 0.91405 0 0 0 0.56347 0.84948c-0.55845 0.12468-0.97337 0.5641-0.97337 1.0912 0 1.0245-0.008924 1.0222 1.3189 1.0222 1.267 0 1.2719 0.0143 1.2651-1.0222-0.00338-0.52364-0.41072-0.9602-0.96274-1.0882a0.89102 0.91405 0 0 0 0.57055-0.8525 0.89102 0.91405 0 0 0-0.89068-0.9137z" fill="url(#h)" stroke="url(#e)" style="paint-order:markers fill stroke"/>
  <path d="m4.6781 291.12a0.89102 0.91405 0 0 0-0.89127 0.9137 0.89102 0.91405 0 0 0 0.56347 0.84948c-0.55845 0.12467-0.97337 0.56411-0.97337 1.0912 0 1.0244-0.00892 1.0222 1.3189 1.0222 1.267 0 1.2719 0.0143 1.2651-1.0222-0.00338-0.52363-0.41072-0.9602-0.96274-1.0882a0.89102 0.91405 0 0 0 0.57055-0.8525 0.89102 0.91405 0 0 0-0.89068-0.9137z" fill="url(#f)" stroke="url(#d)" style="paint-order:markers fill stroke"/>
  <path d="m3.1909 291.65a1.1525 1.1799 0 0 0-1.1528 1.1794 1.1525 1.1799 0 0 0 0.72884 1.0965c-0.72234 0.16092-1.259 0.72815-1.259 1.4086 0 1.3224-0.011552 1.3194 1.706 1.3194 1.6389 0 1.6452 0.0184 1.6364-1.3194-0.00437-0.67593-0.53126-1.2394-1.2453-1.4047a1.1525 1.1799 0 0 0 0.738-1.1004 1.1525 1.1799 0 0 0-1.1521-1.1794z" fill="url(#g)" stroke="url(#c)" style="paint-order:markers fill stroke"/>
 </g>
</svg>
